…
# A tibble: 4 × 12
  ID     Description GeneRatio BgRatio RichFactor FoldEnrichment zScore   pvalue
  <chr>  <chr>       <chr>     <chr>        <dbl>          <dbl>  <dbl>    <dbl>
1 KEGG_… KEGG_CELL_… 21/142    115/43…     0.183            5.55   9.12 6.38e-11
2 KEGG_… KEGG_P53_S… 9/142     62/4317     0.145            4.41   4.99 1.61e- 4
3 KEGG_… KEGG_OOCYT… 11/142    95/4317     0.116            3.52   4.58 2.41e- 4
4 KEGG_… KEGG_CHEMO… 14/142    171/43…     0.0819           2.49   3.66 1.31e- 3
# ℹ 4 more variables: p.adjust <dbl>, qvalue <dbl>, geneID <chr>, Count <dbl>

## Modeling

Nested CV performance:

# A tibble: 195 × 9
   feature_set   model    `repeat`  fold auroc auprc balanced_accuracy threshold
   <chr>         <chr>       <dbl> <dbl> <dbl> <dbl>             <dbl>     <dbl>
 1 clinical_only ridge_l…        1     1 0.714 0.301             0.652     0.524
 2 clinical_only ridge_l…        1     2 0.752 0.336             0.683     0.522
 3 clinical_only ridge_l…        1     3 0.748 0.421             0.616     0.496
 4 clinical_only ridge_l…        1     4 0.722 0.446             0.632     0.515
 5 clinical_only ridge_l…        1     5 0.877 0.495             0.833     0.509
 6 clinical_only ridge_l…        2     1 0.803 0.543             0.707     0.506
 7 clinical_only ridge_l…        2     2 0.775 0.367             0.732     0.498
 8 clinical_only ridge_l…        2     3 0.718 0.388             0.707     0.502
 9 clinical_only ridge_l…        2     4 0.816 0.515             0.726     0.502
10 clinical_only ridge_l…        2     5 0.727 0.282             0.673     0.517
# ℹ 185 more rows
# ℹ 1 more variable: best_params <chr>

Source-transfer performance:

# A tibble: 26 × 9
   feature_set   model    train_source test_source auroc auprc balanced_accuracy
   <chr>         <chr>    <chr>        <chr>       <dbl> <dbl>             <dbl>
 1 clinical_only ridge_l… MDACC        ISPY        0.699 0.274             0.660
 2 clinical_only ridge_l… ISPY         MDACC       0.678 0.326             0.631
 3 clinical_only elastic… MDACC        ISPY        0.702 0.281             0.660
 4 clinical_only elastic… ISPY         MDACC       0.690 0.336             0.653
 5 clinical_only linear_… MDACC        ISPY        0.709 0.285             0.645
 6 clinical_only linear_… ISPY         MDACC       0.696 0.346             0.627
 7 clinical_only xgboost  MDACC        ISPY        0.687 0.385             0.645
 8 clinical_only xgboost  ISPY         MDACC       0.737 0.354             0.670
 9 bi_only       ridge_l… MDACC        ISPY        0.670 0.258             0.708
10 bi_only       ridge_l… ISPY         MDACC       0.742 0.335             0.696
# ℹ 16 more rows
# ℹ 2 more variables: threshold <dbl>, best_params <chr>

PASNet tuning summary:

# A tibble: 1 × 6
  model  feature_set  auroc_mean baseline_best_auroc target_auroc note          
  <chr>  <chr>             <dbl>               <dbl>        <dbl> <chr>         
1 pasnet gene_pathway      0.753               0.778        0.758 PASNet did no…

Top predictive signatures:

# A tibble: 195 × 4
   feature                                mean_abs_importance feature_set  model
   <chr>                                                <dbl> <chr>        <chr>
 1 er_status_ihc_esr1_for indeterminate_P              0.205  clinical_on… ridg…
 2 er_status_ihc_esr1_for indeterminate_N              0.177  clinical_on… ridg…
 3 grade_3                                             0.151  clinical_on… ridg…
 4 grade_2                                             0.143  clinical_on… ridg…
 5 age_years                                           0.0827 clinical_on… ridg…
 6 clinical_t_stage_T4                                 0.0527 clinical_on… ridg…
 7 clinical_nodal_status_N0                            0.0386 clinical_on… ridg…
 8 grade_1                                             0.0239 clinical_on… ridg…
 9 clinical_ajcc_stage_IIB                             0.0222 clinical_on… ridg…
10 clinical_t_stage_T1                                 0.0213 clinical_on… ridg…
# ℹ 185 more rows
